name,value,date
Alphabet Inc.,40.4005012512207,2017-01-03
Alphabet Inc.,40.38850021362305,2017-01-04
Alphabet Inc.,40.6510009765625,2017-01-05
Alphabet Inc.,41.260501861572266,2017-01-06
Alphabet Inc.,41.35900115966797,2017-01-09
Alphabet Inc.,41.300498962402344,2017-01-10
Alphabet Inc.,41.49300003051758,2017-01-11
Alphabet Inc.,41.47650146484375,2017-01-12
Alphabet Inc.,41.547000885009766,2017-01-13
Alphabet Inc.,41.37300109863281,2017-01-17
Alphabet Inc.,41.45100021362305,2017-01-18
Alphabet Inc.,41.21849822998047,2017-01-19
Alphabet Inc.,41.40850067138672,2017-01-20
Alphabet Inc.,42.221500396728516,2017-01-23
Alphabet Inc.,42.47650146484375,2017-01-24
Alphabet Inc.,42.92250061035156,2017-01-25
Alphabet Inc.,42.8489990234375,2017-01-26
Alphabet Inc.,42.25149917602539,2017-01-27
Alphabet Inc.,41.19150161743164,2017-01-30
Alphabet Inc.,41.009498596191406,2017-01-31
Alphabet Inc.,40.762001037597656,2017-02-01
Alphabet Inc.,40.91299819946289,2017-02-02
Alphabet Inc.,41.006500244140625,2017-02-03
Alphabet Inc.,41.08100128173828,2017-02-06
Alphabet Inc.,41.46149826049805,2017-02-07
Alphabet Inc.,41.49399948120117,2017-02-08
Alphabet Inc.,41.50299835205078,2017-02-09
Alphabet Inc.,41.74250030517578,2017-02-10
Alphabet Inc.,41.948001861572266,2017-02-13
Alphabet Inc.,42.00149917602539,2017-02-14
Alphabet Inc.,41.86600112915039,2017-02-15
Alphabet Inc.,42.10850143432617,2017-02-16
Alphabet Inc.,42.32749938964844,2017-02-17
Alphabet Inc.,42.4635009765625,2017-02-21
Alphabet Inc.,42.56800079345703,2017-02-22
Alphabet Inc.,42.54999923706055,2017-02-23
Alphabet Inc.,42.390499114990234,2017-02-24
Alphabet Inc.,42.48350143432617,2017-02-27
Alphabet Inc.,42.246498107910156,2017-02-28
Alphabet Inc.,42.837501525878906,2017-03-01
Alphabet Inc.,42.49250030517578,2017-03-02
Alphabet Inc.,42.45399856567383,2017-03-03
Alphabet Inc.,42.36349868774414,2017-03-06
Alphabet Inc.,42.557498931884766,2017-03-07
Alphabet Inc.,42.68199920654297,2017-03-08
Alphabet Inc.,42.891998291015625,2017-03-09
Alphabet Inc.,43.070499420166016,2017-03-10
Alphabet Inc.,43.229000091552734,2017-03-13
Alphabet Inc.,43.295501708984375,2017-03-14
Alphabet Inc.,43.419498443603516,2017-03-15
Alphabet Inc.,43.5,2017-03-16
Alphabet Inc.,43.618499755859375,2017-03-17
Alphabet Inc.,43.39550018310547,2017-03-20
Alphabet Inc.,42.50699996948242,2017-03-21
Alphabet Inc.,42.4900016784668,2017-03-22
Alphabet Inc.,41.98249816894531,2017-03-23
Alphabet Inc.,41.75699996948242,2017-03-24
Alphabet Inc.,41.925498962402344,2017-03-27
Alphabet Inc.,42.03150177001953,2017-03-28
Alphabet Inc.,42.493499755859375,2017-03-29
Alphabet Inc.,42.4739990234375,2017-03-30
Alphabet Inc.,42.38999938964844,2017-03-31
Alphabet Inc.,42.837501525878906,2017-04-03
Alphabet Inc.,42.628501892089844,2017-04-04
Alphabet Inc.,42.445499420166016,2017-04-05
Alphabet Inc.,42.255001068115234,2017-04-06
Alphabet Inc.,42.10499954223633,2017-04-07
Alphabet Inc.,42.084999084472656,2017-04-10
Alphabet Inc.,41.99399948120117,2017-04-11
Alphabet Inc.,42.073001861572266,2017-04-12
Alphabet Inc.,42.00899887084961,2017-04-13
Alphabet Inc.,42.756500244140625,2017-04-17
Alphabet Inc.,42.699501037597656,2017-04-18
Alphabet Inc.,42.82550048828125,2017-04-19
Alphabet Inc.,43.00400161743164,2017-04-20
Alphabet Inc.,42.9474983215332,2017-04-21
Alphabet Inc.,43.94649887084961,2017-04-24
Alphabet Inc.,44.44200134277344,2017-04-25
Alphabet Inc.,44.457000732421875,2017-04-26
Alphabet Inc.,44.571998596191406,2017-04-27
Alphabet Inc.,46.22600173950195,2017-04-28
Alphabet Inc.,46.64099884033203,2017-05-01
Alphabet Inc.,46.85449981689453,2017-05-02
Alphabet Inc.,47.42250061035156,2017-05-03
Alphabet Inc.,47.736000061035156,2017-05-04
Alphabet Inc.,47.513999938964844,2017-05-05
Alphabet Inc.,47.93450164794922,2017-05-08
Alphabet Inc.,47.83549880981445,2017-05-09
Alphabet Inc.,47.742000579833984,2017-05-10
Alphabet Inc.,47.794498443603516,2017-05-11
Alphabet Inc.,47.75699996948242,2017-05-12
Alphabet Inc.,47.96099853515625,2017-05-15
Alphabet Inc.,48.230499267578125,2017-05-16
Alphabet Inc.,47.10850143432617,2017-05-17
Alphabet Inc.,47.525001525878906,2017-05-18
Alphabet Inc.,47.73249816894531,2017-05-19
Alphabet Inc.,48.20349884033203,2017-05-22
Alphabet Inc.,48.52750015258789,2017-05-23
Alphabet Inc.,48.88050079345703,2017-05-24
Alphabet Inc.,49.59299850463867,2017-05-25
Alphabet Inc.,49.66350173950195,2017-05-26
Alphabet Inc.,49.80849838256836,2017-05-30
Alphabet Inc.,49.35449981689453,2017-05-31
Alphabet Inc.,49.41450119018555,2017-06-01
Alphabet Inc.,49.805999755859375,2017-06-02
Alphabet Inc.,50.194000244140625,2017-06-05
Alphabet Inc.,49.83399963378906,2017-06-06
Alphabet Inc.,50.07500076293945,2017-06-07
Alphabet Inc.,50.2140007019043,2017-06-08
Alphabet Inc.,48.50600051879883,2017-06-09
Alphabet Inc.,48.09049987792969,2017-06-12
Alphabet Inc.,48.525001525878906,2017-06-13
Alphabet Inc.,48.39649963378906,2017-06-14
Alphabet Inc.,48.00899887084961,2017-06-15
Alphabet Inc.,47.930999755859375,2017-06-16
Alphabet Inc.,48.76100158691406,2017-06-19
Alphabet Inc.,48.449501037597656,2017-06-20
Alphabet Inc.,48.929500579833984,2017-06-21
Alphabet Inc.,48.83100128173828,2017-06-22
Alphabet Inc.,49.304500579833984,2017-06-23
Alphabet Inc.,48.60449981689453,2017-06-26
Alphabet Inc.,47.40449905395508,2017-06-27
Alphabet Inc.,48.050498962402344,2017-06-28
Alphabet Inc.,46.89099884033203,2017-06-29
Alphabet Inc.,46.48400115966797,2017-06-30
Alphabet Inc.,45.972999572753906,2017-07-03
Alphabet Inc.,46.612998962402344,2017-07-05
Alphabet Inc.,46.384498596191406,2017-07-06
Alphabet Inc.,47.04050064086914,2017-07-07
Alphabet Inc.,47.54999923706055,2017-07-10
Alphabet Inc.,47.67649841308594,2017-07-11
Alphabet Inc.,48.382999420166016,2017-07-12
Alphabet Inc.,48.442501068115234,2017-07-13
Alphabet Inc.,48.84550094604492,2017-07-14
Alphabet Inc.,48.79800033569336,2017-07-17
Alphabet Inc.,49.34749984741211,2017-07-18
Alphabet Inc.,49.63850021362305,2017-07-19
Alphabet Inc.,49.609500885009766,2017-07-20
Alphabet Inc.,49.69200134277344,2017-07-21
Alphabet Inc.,49.91550064086914,2017-07-24
Alphabet Inc.,48.451499938964844,2017-07-25
Alphabet Inc.,48.265499114990234,2017-07-26
Alphabet Inc.,47.6254997253418,2017-07-27
Alphabet Inc.,47.916500091552734,2017-07-28
Alphabet Inc.,47.275001525878906,2017-07-31
Alphabet Inc.,47.327999114990234,2017-08-01
Alphabet Inc.,47.38199996948242,2017-08-02
Alphabet Inc.,47.01499938964844,2017-08-03
Alphabet Inc.,47.28950119018555,2017-08-04
Alphabet Inc.,47.287498474121094,2017-08-07
Alphabet Inc.,47.20949935913086,2017-08-08
Alphabet Inc.,47.00400161743164,2017-08-09
Alphabet Inc.,46.179500579833984,2017-08-10
Alphabet Inc.,46.50450134277344,2017-08-11
Alphabet Inc.,46.94649887084961,2017-08-14
Alphabet Inc.,46.90399932861328,2017-08-15
Alphabet Inc.,47.2135009765625,2017-08-16
Alphabet Inc.,46.382999420166016,2017-08-17
Alphabet Inc.,46.308998107910156,2017-08-18
Alphabet Inc.,46.04349899291992,2017-08-21
Alphabet Inc.,47.02000045776367,2017-08-22
Alphabet Inc.,47.12900161743164,2017-08-23
Alphabet Inc.,46.84450149536133,2017-08-24
Alphabet Inc.,46.525001525878906,2017-08-25
Alphabet Inc.,46.40650177001953,2017-08-28
Alphabet Inc.,46.787498474121094,2017-08-29
Alphabet Inc.,47.18149948120117,2017-08-30
Alphabet Inc.,47.762001037597656,2017-08-31
Alphabet Inc.,47.5994987487793,2017-09-01
Alphabet Inc.,47.07400131225586,2017-09-05
Alphabet Inc.,47.10100173950195,2017-09-06
Alphabet Inc.,47.49449920654297,2017-09-07
Alphabet Inc.,47.070499420166016,2017-09-08
Alphabet Inc.,47.16450119018555,2017-09-11
Alphabet Inc.,47.33250045776367,2017-09-12
Alphabet Inc.,47.52199935913086,2017-09-13
Alphabet Inc.,47.006500244140625,2017-09-14
Alphabet Inc.,46.76449966430664,2017-09-15
Alphabet Inc.,46.48749923706055,2017-09-18
Alphabet Inc.,46.84299850463867,2017-09-19
Alphabet Inc.,47.37699890136719,2017-09-20
Alphabet Inc.,47.377498626708984,2017-09-21
Alphabet Inc.,47.16299819946289,2017-09-22
Alphabet Inc.,46.7140007019043,2017-09-25
Alphabet Inc.,46.871498107910156,2017-09-26
Alphabet Inc.,47.994998931884766,2017-09-27
Alphabet Inc.,48.240501403808594,2017-09-28
Alphabet Inc.,48.68600082397461,2017-09-29
Alphabet Inc.,48.37350082397461,2017-10-02
Alphabet Inc.,48.604000091552734,2017-10-03
Alphabet Inc.,48.3390007019043,2017-10-04
Alphabet Inc.,49.259498596191406,2017-10-05
Alphabet Inc.,49.68199920654297,2017-10-06
Alphabet Inc.,49.615501403808594,2017-10-09
Alphabet Inc.,49.38999938964844,2017-10-10
Alphabet Inc.,50.282501220703125,2017-10-11
Alphabet Inc.,50.282501220703125,2017-10-12
Alphabet Inc.,50.39350128173828,2017-10-13
Alphabet Inc.,50.467498779296875,2017-10-16
Alphabet Inc.,50.54999923706055,2017-10-17
Alphabet Inc.,50.637001037597656,2017-10-18
Alphabet Inc.,50.09199905395508,2017-10-19
Alphabet Inc.,50.253501892089844,2017-10-20
Alphabet Inc.,49.277000427246094,2017-10-23
Alphabet Inc.,49.42449951171875,2017-10-24
Alphabet Inc.,49.573001861572266,2017-10-25
Alphabet Inc.,49.57099914550781,2017-10-26
Alphabet Inc.,51.68349838256836,2017-10-27
Alphabet Inc.,51.65650177001953,2017-10-30
Alphabet Inc.,51.652000427246094,2017-10-31
Alphabet Inc.,52.130001068115234,2017-11-01
Alphabet Inc.,52.14849853515625,2017-11-02
Alphabet Inc.,52.4995002746582,2017-11-03
Alphabet Inc.,52.13399887084961,2017-11-06
Alphabet Inc.,52.61949920654297,2017-11-07
Alphabet Inc.,52.91450119018555,2017-11-08
Alphabet Inc.,52.38600158691406,2017-11-09
Alphabet Inc.,52.20750045776367,2017-11-10
Alphabet Inc.,52.060001373291016,2017-11-13
Alphabet Inc.,52.082000732421875,2017-11-14
Alphabet Inc.,51.820499420166016,2017-11-15
Alphabet Inc.,52.423500061035156,2017-11-16
Alphabet Inc.,51.794498443603516,2017-11-17
Alphabet Inc.,51.733001708984375,2017-11-20
Alphabet Inc.,52.51499938964844,2017-11-21
Alphabet Inc.,52.59600067138672,2017-11-22
Alphabet Inc.,52.82600021362305,2017-11-24
Alphabet Inc.,53.60049819946289,2017-11-27
Alphabet Inc.,53.16450119018555,2017-11-28
Alphabet Inc.,51.86899948120117,2017-11-29
Alphabet Inc.,51.80849838256836,2017-11-30
Alphabet Inc.,51.253501892089844,2017-12-01
Alphabet Inc.,50.59349822998047,2017-12-04
Alphabet Inc.,50.97999954223633,2017-12-05
Alphabet Inc.,51.63600158691406,2017-12-06
Alphabet Inc.,52.22850036621094,2017-12-07
Alphabet Inc.,52.46900177001953,2017-12-08
Alphabet Inc.,52.5984992980957,2017-12-11
Alphabet Inc.,52.438499450683594,2017-12-12
Alphabet Inc.,52.56949996948242,2017-12-13
Alphabet Inc.,52.87350082397461,2017-12-14
Alphabet Inc.,53.599998474121094,2017-12-15
Alphabet Inc.,54.25450134277344,2017-12-18
Alphabet Inc.,53.98899841308594,2017-12-19
Alphabet Inc.,53.678001403808594,2017-12-20
Alphabet Inc.,53.54249954223633,2017-12-21
Alphabet Inc.,53.44300079345703,2017-12-22
Alphabet Inc.,53.29249954223633,2017-12-26
Alphabet Inc.,53.0099983215332,2017-12-27
Alphabet Inc.,52.79750061035156,2017-12-28
Alphabet Inc.,52.66999816894531,2017-12-29
Alphabet Inc.,53.660499572753906,2018-01-02
Alphabet Inc.,54.57600021362305,2018-01-03
Alphabet Inc.,54.78799819946289,2018-01-04
Alphabet Inc.,55.51449966430664,2018-01-05
Alphabet Inc.,55.71049880981445,2018-01-08
Alphabet Inc.,55.63949966430664,2018-01-09
Alphabet Inc.,55.50699996948242,2018-01-10
Alphabet Inc.,55.602500915527344,2018-01-11
Alphabet Inc.,56.532501220703125,2018-01-12
Alphabet Inc.,56.53499984741211,2018-01-16
Alphabet Inc.,56.95500183105469,2018-01-17
Alphabet Inc.,56.798500061035156,2018-01-18
Alphabet Inc.,57.17499923706055,2018-01-19
Alphabet Inc.,58.20800018310547,2018-01-22
Alphabet Inc.,58.80849838256836,2018-01-23
Alphabet Inc.,58.56449890136719,2018-01-24
Alphabet Inc.,59.106998443603516,2018-01-25
Alphabet Inc.,59.37799835205078,2018-01-26
Alphabet Inc.,59.32400131225586,2018-01-29
Alphabet Inc.,58.868499755859375,2018-01-30
Alphabet Inc.,59.111000061035156,2018-01-31
Alphabet Inc.,59.079498291015625,2018-02-01
Alphabet Inc.,55.959999084472656,2018-02-02
Alphabet Inc.,53.11949920654297,2018-02-05
Alphabet Inc.,54.221500396728516,2018-02-06
Alphabet Inc.,52.77050018310547,2018-02-07
Alphabet Inc.,50.385501861572266,2018-02-08
Alphabet Inc.,52.313499450683594,2018-02-09
Alphabet Inc.,52.72800064086914,2018-02-12
Alphabet Inc.,52.707000732421875,2018-02-13
Alphabet Inc.,53.6349983215332,2018-02-14
Alphabet Inc.,54.56800079345703,2018-02-15
Alphabet Inc.,54.775001525878906,2018-02-16
Alphabet Inc.,55.179500579833984,2018-02-20
Alphabet Inc.,55.6875,2018-02-21
Alphabet Inc.,55.494998931884766,2018-02-22
Alphabet Inc.,56.40449905395508,2018-02-23
Alphabet Inc.,57.185001373291016,2018-02-26
Alphabet Inc.,55.8754997253418,2018-02-27
Alphabet Inc.,55.19599914550781,2018-02-28
Alphabet Inc.,53.570499420166016,2018-03-01
Alphabet Inc.,54.207000732421875,2018-03-02
Alphabet Inc.,54.737998962402344,2018-03-05
Alphabet Inc.,55.04499816894531,2018-03-06
Alphabet Inc.,55.75199890136719,2018-03-07
Alphabet Inc.,56.46900177001953,2018-03-08
Alphabet Inc.,58.04199981689453,2018-03-09
Alphabet Inc.,58.29650115966797,2018-03-12
Alphabet Inc.,56.99549865722656,2018-03-13
Alphabet Inc.,57.44449996948242,2018-03-14
Alphabet Inc.,57.53049850463867,2018-03-15
Alphabet Inc.,56.72100067138672,2018-03-16
Alphabet Inc.,55.003501892089844,2018-03-19
Alphabet Inc.,54.790000915527344,2018-03-20
Alphabet Inc.,54.70000076293945,2018-03-21
Alphabet Inc.,52.657501220703125,2018-03-22
Alphabet Inc.,51.32749938964844,2018-03-23
Alphabet Inc.,52.704498291015625,2018-03-26
Alphabet Inc.,50.34700012207031,2018-03-27
Alphabet Inc.,50.25899887084961,2018-03-28
Alphabet Inc.,51.856998443603516,2018-03-29
Alphabet Inc.,50.631500244140625,2018-04-02
Alphabet Inc.,50.933998107910156,2018-04-03
Alphabet Inc.,51.48550033569336,2018-04-04
Alphabet Inc.,51.63199996948242,2018-04-05
Alphabet Inc.,50.497501373291016,2018-04-06
Alphabet Inc.,51.00450134277344,2018-04-09
Alphabet Inc.,51.82500076293945,2018-04-10
Alphabet Inc.,51.25299835205078,2018-04-11
Alphabet Inc.,51.864498138427734,2018-04-12
Alphabet Inc.,51.801998138427734,2018-04-13
Alphabet Inc.,52.30500030517578,2018-04-16
Alphabet Inc.,53.96799850463867,2018-04-17
Alphabet Inc.,53.769500732421875,2018-04-18
Alphabet Inc.,54.47249984741211,2018-04-19
Alphabet Inc.,53.86600112915039,2018-04-20
Alphabet Inc.,53.69049835205078,2018-04-23
Alphabet Inc.,51.13199996948242,2018-04-24
Alphabet Inc.,51.14950180053711,2018-04-25
Alphabet Inc.,52.16550064086914,2018-04-26
Alphabet Inc.,51.5724983215332,2018-04-27
Alphabet Inc.,50.92900085449219,2018-04-30
Alphabet Inc.,52.037498474121094,2018-05-01
Alphabet Inc.,51.3025016784668,2018-05-02
Alphabet Inc.,51.314998626708984,2018-05-03
Alphabet Inc.,52.54999923706055,2018-05-04
Alphabet Inc.,52.972999572753906,2018-05-07
Alphabet Inc.,52.929500579833984,2018-05-08
Alphabet Inc.,54.4474983215332,2018-05-09
Alphabet Inc.,55.27349853515625,2018-05-10
Alphabet Inc.,55.16899871826172,2018-05-11
Alphabet Inc.,55.33000183105469,2018-05-14
Alphabet Inc.,54.243499755859375,2018-05-15
Alphabet Inc.,54.204498291015625,2018-05-16
Alphabet Inc.,54.0629997253418,2018-05-17
Alphabet Inc.,53.481998443603516,2018-05-18
Alphabet Inc.,54.20050048828125,2018-05-21
Alphabet Inc.,53.765499114990234,2018-05-22
Alphabet Inc.,54.29800033569336,2018-05-23
Alphabet Inc.,54.272499084472656,2018-05-24
Alphabet Inc.,54.20399856567383,2018-05-25
Alphabet Inc.,53.403499603271484,2018-05-29
Alphabet Inc.,53.87350082397461,2018-05-30
Alphabet Inc.,55.0,2018-05-31
Alphabet Inc.,56.75,2018-06-01
Alphabet Inc.,57.652000427246094,2018-06-04
Alphabet Inc.,57.55099868774414,2018-06-05
Alphabet Inc.,57.34749984741211,2018-06-06
Alphabet Inc.,56.72100067138672,2018-06-07
Alphabet Inc.,56.635501861572266,2018-06-08
Alphabet Inc.,57.04499816894531,2018-06-11
Alphabet Inc.,57.40950012207031,2018-06-12
Alphabet Inc.,57.21149826049805,2018-06-13
Alphabet Inc.,58.00550079345703,2018-06-14
Alphabet Inc.,57.9635009765625,2018-06-15
Alphabet Inc.,59.17900085449219,2018-06-18
Alphabet Inc.,58.93450164794922,2018-06-19
Alphabet Inc.,59.20349884033203,2018-06-20
Alphabet Inc.,58.47200012207031,2018-06-21
Alphabet Inc.,58.464500427246094,2018-06-22
Alphabet Inc.,56.9640007019043,2018-06-25
Alphabet Inc.,56.63100051879883,2018-06-26
Alphabet Inc.,55.84700012207031,2018-06-27
Alphabet Inc.,56.3390007019043,2018-06-28
Alphabet Inc.,56.45949935913086,2018-06-29
Alphabet Inc.,57.105499267578125,2018-07-02
Alphabet Inc.,55.81399917602539,2018-07-03
Alphabet Inc.,57.06449890136719,2018-07-05
Alphabet Inc.,57.75400161743164,2018-07-06
Alphabet Inc.,58.36399841308594,2018-07-09
Alphabet Inc.,58.356998443603516,2018-07-10
Alphabet Inc.,58.573001861572266,2018-07-11
Alphabet Inc.,60.0629997253418,2018-07-12
Alphabet Inc.,60.22100067138672,2018-07-13
Alphabet Inc.,59.82550048828125,2018-07-16
Alphabet Inc.,60.65399932861328,2018-07-17
Alphabet Inc.,60.64550018310547,2018-07-18
Alphabet Inc.,59.95500183105469,2018-07-19
Alphabet Inc.,59.89400100708008,2018-07-20
Alphabet Inc.,60.54999923706055,2018-07-23
Alphabet Inc.,62.907501220703125,2018-07-24
Alphabet Inc.,63.797000885009766,2018-07-25
Alphabet Inc.,64.2750015258789,2018-07-26
Alphabet Inc.,62.644500732421875,2018-07-27
Alphabet Inc.,61.50199890136719,2018-07-30
Alphabet Inc.,61.361000061035156,2018-07-31
Alphabet Inc.,61.64950180053711,2018-08-01
Alphabet Inc.,62.05649948120117,2018-08-02
Alphabet Inc.,61.90800094604492,2018-08-03
Alphabet Inc.,61.88349914550781,2018-08-06
Alphabet Inc.,62.79199981689453,2018-08-07
Alphabet Inc.,63.06650161743164,2018-08-08
Alphabet Inc.,63.222999572753906,2018-08-09
Alphabet Inc.,62.6254997253418,2018-08-10
Alphabet Inc.,62.43199920654297,2018-08-13
Alphabet Inc.,62.90700149536133,2018-08-14
Alphabet Inc.,61.611000061035156,2018-08-15
Alphabet Inc.,61.202999114990234,2018-08-16
Alphabet Inc.,60.79249954223633,2018-08-17
Alphabet Inc.,61.09749984741211,2018-08-20
Alphabet Inc.,60.87049865722656,2018-08-21
Alphabet Inc.,61.087501525878906,2018-08-22
Alphabet Inc.,61.05799865722656,2018-08-23
Alphabet Inc.,61.837501525878906,2018-08-24
Alphabet Inc.,62.813499450683594,2018-08-27
Alphabet Inc.,62.292999267578125,2018-08-28
Alphabet Inc.,63.23249816894531,2018-08-29
Alphabet Inc.,62.72200012207031,2018-08-30
Alphabet Inc.,61.59000015258789,2018-08-31
Alphabet Inc.,60.56549835205078,2018-09-04
Alphabet Inc.,59.95500183105469,2018-09-05
Alphabet Inc.,59.199501037597656,2018-09-06
Alphabet Inc.,58.87950134277344,2018-09-07
Alphabet Inc.,58.75299835205078,2018-09-10
Alphabet Inc.,59.4995002746582,2018-09-11
Alphabet Inc.,58.58000183105469,2018-09-12
Alphabet Inc.,59.106998443603516,2018-09-13
Alphabet Inc.,58.89899826049805,2018-09-14
Alphabet Inc.,57.99150085449219,2018-09-17
Alphabet Inc.,58.355499267578125,2018-09-18
Alphabet Inc.,58.7135009765625,2018-09-19
Alphabet Inc.,59.57849884033203,2018-09-20
Alphabet Inc.,58.60599899291992,2018-09-21
Alphabet Inc.,58.97800064086914,2018-09-24
Alphabet Inc.,59.69449996948242,2018-09-25
Alphabet Inc.,59.702999114990234,2018-09-26
Alphabet Inc.,60.36800003051758,2018-09-27
Alphabet Inc.,60.354000091552734,2018-09-28
Alphabet Inc.,60.42649841308594,2018-10-01
Alphabet Inc.,60.38199996948242,2018-10-02
Alphabet Inc.,60.576499938964844,2018-10-03
Alphabet Inc.,58.85350036621094,2018-10-04
Alphabet Inc.,58.39149856567383,2018-10-05
Alphabet Inc.,57.79600143432617,2018-10-08
Alphabet Inc.,57.25849914550781,2018-10-09
Alphabet Inc.,54.608001708984375,2018-10-10
Alphabet Inc.,54.5369987487793,2018-10-11
Alphabet Inc.,56.027000427246094,2018-10-12
Alphabet Inc.,55.12200164794922,2018-10-15
Alphabet Inc.,56.65399932861328,2018-10-16
Alphabet Inc.,56.37950134277344,2018-10-17
Alphabet Inc.,54.89550018310547,2018-10-18
Alphabet Inc.,55.25899887084961,2018-10-19
Alphabet Inc.,55.56850051879883,2018-10-22
Alphabet Inc.,55.74549865722656,2018-10-23
Alphabet Inc.,52.85599899291992,2018-10-24
Alphabet Inc.,55.179500579833984,2018-10-25
Alphabet Inc.,54.1875,2018-10-26
Alphabet Inc.,51.73649978637695,2018-10-29
Alphabet Inc.,52.47549819946289,2018-10-30
Alphabet Inc.,54.52899932861328,2018-10-31
Alphabet Inc.,54.29899978637695,2018-11-01
Alphabet Inc.,53.574501037597656,2018-11-02
Alphabet Inc.,52.7864990234375,2018-11-05
Alphabet Inc.,53.47850036621094,2018-11-06
Alphabet Inc.,55.4119987487793,2018-11-07
Alphabet Inc.,54.73149871826172,2018-11-08
Alphabet Inc.,53.85100173950195,2018-11-09
Alphabet Inc.,52.46799850463867,2018-11-12
Alphabet Inc.,52.39849853515625,2018-11-13
Alphabet Inc.,52.729000091552734,2018-11-14
Alphabet Inc.,53.5525016784668,2018-11-15
Alphabet Inc.,53.41350173950195,2018-11-16
Alphabet Inc.,51.37099838256836,2018-11-19
Alphabet Inc.,51.522499084472656,2018-11-20
Alphabet Inc.,52.17150115966797,2018-11-21
Alphabet Inc.,51.505001068115234,2018-11-23
Alphabet Inc.,52.797000885009766,2018-11-26
Alphabet Inc.,52.61399841308594,2018-11-27
Alphabet Inc.,54.589500427246094,2018-11-28
Alphabet Inc.,54.729000091552734,2018-11-29
Alphabet Inc.,55.48249816894531,2018-11-30
Alphabet Inc.,55.81800079345703,2018-12-03
Alphabet Inc.,53.12350082397461,2018-12-04
Alphabet Inc.,53.90399932861328,2018-12-06
Alphabet Inc.,52.32899856567383,2018-12-07
Alphabet Inc.,52.659000396728516,2018-12-10
Alphabet Inc.,53.08250045776367,2018-12-11
Alphabet Inc.,53.686500549316406,2018-12-12
Alphabet Inc.,53.676998138427734,2018-12-13
Alphabet Inc.,52.58549880981445,2018-12-14
Alphabet Inc.,51.282501220703125,2018-12-17
Alphabet Inc.,52.170501708984375,2018-12-18
Alphabet Inc.,51.77299880981445,2018-12-19
Alphabet Inc.,51.17900085449219,2018-12-20
Alphabet Inc.,49.5625,2018-12-21
Alphabet Inc.,49.23350143432617,2018-12-24
Alphabet Inc.,52.39250183105469,2018-12-26
Alphabet Inc.,52.64500045776367,2018-12-27
Alphabet Inc.,52.33399963378906,2018-12-28
Alphabet Inc.,52.24800109863281,2018-12-31
Alphabet Inc.,52.73400115966797,2019-01-02
Alphabet Inc.,51.27349853515625,2019-01-03
Alphabet Inc.,53.903499603271484,2019-01-04
Alphabet Inc.,53.79600143432617,2019-01-07
Alphabet Inc.,54.26850128173828,2019-01-08
Alphabet Inc.,54.08250045776367,2019-01-09
Alphabet Inc.,53.94150161743164,2019-01-10
Alphabet Inc.,53.2234992980957,2019-01-11
Alphabet Inc.,52.57550048828125,2019-01-14
Alphabet Inc.,54.32550048828125,2019-01-15
Alphabet Inc.,54.47549819946289,2019-01-16
Alphabet Inc.,54.95600128173828,2019-01-17
Alphabet Inc.,55.3650016784668,2019-01-18
Alphabet Inc.,53.93149948120117,2019-01-22
Alphabet Inc.,54.22050094604492,2019-01-23
Alphabet Inc.,54.20000076293945,2019-01-24
Alphabet Inc.,55.07550048828125,2019-01-25
Alphabet Inc.,53.99300003051758,2019-01-28
Alphabet Inc.,53.50299835205078,2019-01-29
Alphabet Inc.,54.89950180053711,2019-01-30
Alphabet Inc.,56.294498443603516,2019-01-31
Alphabet Inc.,55.930999755859375,2019-02-01
Alphabet Inc.,57.07099914550781,2019-02-04
Alphabet Inc.,57.59349822998047,2019-02-05
Alphabet Inc.,56.144500732421875,2019-02-06
Alphabet Inc.,55.295501708984375,2019-02-07
Alphabet Inc.,55.11899948120117,2019-02-08
Alphabet Inc.,55.10599899291992,2019-02-11
Alphabet Inc.,56.37900161743164,2019-02-12
Alphabet Inc.,56.43149948120117,2019-02-13
Alphabet Inc.,56.459999084472656,2019-02-14
Alphabet Inc.,55.98149871826172,2019-02-15
Alphabet Inc.,56.32550048828125,2019-02-19
Alphabet Inc.,56.02949905395508,2019-02-20
Alphabet Inc.,55.21049880981445,2019-02-21
Alphabet Inc.,55.827999114990234,2019-02-22
Alphabet Inc.,55.86650085449219,2019-02-25
Alphabet Inc.,56.10049819946289,2019-02-26
Alphabet Inc.,56.144500732421875,2019-02-27
Alphabet Inc.,56.32749938964844,2019-02-28
Alphabet Inc.,57.42599868774414,2019-03-01
Alphabet Inc.,57.67100143432617,2019-03-04
Alphabet Inc.,58.45949935913086,2019-03-05
Alphabet Inc.,58.24700164794922,2019-03-06
Alphabet Inc.,57.54249954223633,2019-03-07
Alphabet Inc.,57.49850082397461,2019-03-08
Alphabet Inc.,58.9630012512207,2019-03-11
Alphabet Inc.,59.86249923706055,2019-03-12
Alphabet Inc.,59.952999114990234,2019-03-13
Alphabet Inc.,59.62649917602539,2019-03-14
Alphabet Inc.,59.51499938964844,2019-03-15
Alphabet Inc.,59.4275016784668,2019-03-18
Alphabet Inc.,60.12300109863281,2019-03-19
Alphabet Inc.,61.32149887084961,2019-03-20
Alphabet Inc.,61.80649948120117,2019-03-21
Alphabet Inc.,60.38249969482422,2019-03-22
Alphabet Inc.,59.86899948120117,2019-03-25
Alphabet Inc.,59.492000579833984,2019-03-26
Alphabet Inc.,58.9005012512207,2019-03-27
Alphabet Inc.,58.61349868774414,2019-03-28
Alphabet Inc.,58.84450149536133,2019-03-29
Alphabet Inc.,59.94900131225586,2019-04-01
Alphabet Inc.,60.277000427246094,2019-04-02
Alphabet Inc.,60.54050064086914,2019-04-03
Alphabet Inc.,60.97249984741211,2019-04-04
Alphabet Inc.,60.5724983215332,2019-04-05
Alphabet Inc.,60.41400146484375,2019-04-08
Alphabet Inc.,60.134498596191406,2019-04-09
Alphabet Inc.,60.3224983215332,2019-04-10
Alphabet Inc.,60.47949981689453,2019-04-11
Alphabet Inc.,61.13650131225586,2019-04-12
Alphabet Inc.,61.326499938964844,2019-04-15
Alphabet Inc.,61.59550094604492,2019-04-16
Alphabet Inc.,62.00699996948242,2019-04-17
Alphabet Inc.,62.07350158691406,2019-04-18
Alphabet Inc.,62.6879997253418,2019-04-22
Alphabet Inc.,63.52949905395508,2019-04-23
Alphabet Inc.,63.002498626708984,2019-04-24
Alphabet Inc.,63.367000579833984,2019-04-25
Alphabet Inc.,63.87099838256836,2019-04-26
Alphabet Inc.,64.80999755859375,2019-04-29
Alphabet Inc.,59.948001861572266,2019-04-30
Alphabet Inc.,58.66600036621094,2019-05-01
Alphabet Inc.,58.32550048828125,2019-05-02
Alphabet Inc.,59.477500915527344,2019-05-03
Alphabet Inc.,59.67300033569336,2019-05-06
Alphabet Inc.,58.94300079345703,2019-05-07
Alphabet Inc.,58.53900146484375,2019-05-08
Alphabet Inc.,58.39849853515625,2019-05-09
Alphabet Inc.,58.38199996948242,2019-05-10
Alphabet Inc.,56.829498291015625,2019-05-13
Alphabet Inc.,56.24300003051758,2019-05-14
Alphabet Inc.,58.540000915527344,2019-05-15
Alphabet Inc.,59.224998474121094,2019-05-16
Alphabet Inc.,58.43899917602539,2019-05-17
Alphabet Inc.,57.233001708984375,2019-05-20
Alphabet Inc.,57.72200012207031,2019-05-21
Alphabet Inc.,57.79249954223633,2019-05-22
Alphabet Inc.,57.266998291015625,2019-05-23
Alphabet Inc.,56.93050003051758,2019-05-24
Alphabet Inc.,56.97800064086914,2019-05-28
Alphabet Inc.,55.99700164794922,2019-05-29
Alphabet Inc.,56.070499420166016,2019-05-30
Alphabet Inc.,55.32500076293945,2019-05-31
Alphabet Inc.,51.9370002746582,2019-06-03
Alphabet Inc.,52.7244987487793,2019-06-04
Alphabet Inc.,52.231998443603516,2019-06-05
Alphabet Inc.,52.38800048828125,2019-06-06
Alphabet Inc.,53.41849899291992,2019-06-07
Alphabet Inc.,54.13800048828125,2019-06-10
Alphabet Inc.,54.051998138427734,2019-06-11
Alphabet Inc.,53.95500183105469,2019-06-12
Alphabet Inc.,54.550498962402344,2019-06-13
Alphabet Inc.,54.314998626708984,2019-06-14
Alphabet Inc.,54.69449996948242,2019-06-17
Alphabet Inc.,55.262001037597656,2019-06-18
Alphabet Inc.,55.22549819946289,2019-06-19
Alphabet Inc.,55.65999984741211,2019-06-20
Alphabet Inc.,56.26850128173828,2019-06-21
Alphabet Inc.,55.834999084472656,2019-06-24
Alphabet Inc.,54.37900161743164,2019-06-25
Alphabet Inc.,54.01599884033203,2019-06-26
Alphabet Inc.,53.83150100708008,2019-06-27
Alphabet Inc.,54.13999938964844,2019-06-28
Alphabet Inc.,55.0,2019-07-01
Alphabet Inc.,55.630001068115234,2019-07-02
Alphabet Inc.,56.14950180053711,2019-07-03
Alphabet Inc.,56.63349914550781,2019-07-05
Alphabet Inc.,55.839500427246094,2019-07-08
Alphabet Inc.,56.214500427246094,2019-07-09
Alphabet Inc.,57.045501708984375,2019-07-10
Alphabet Inc.,57.20399856567383,2019-07-11
Alphabet Inc.,57.266998291015625,2019-07-12
Alphabet Inc.,57.5255012512207,2019-07-15
Alphabet Inc.,57.67300033569336,2019-07-16
Alphabet Inc.,57.33700180053711,2019-07-17
Alphabet Inc.,57.36199951171875,2019-07-18
Alphabet Inc.,56.57749938964844,2019-07-19
Alphabet Inc.,56.96049880981445,2019-07-22
Alphabet Inc.,57.40250015258789,2019-07-23
Alphabet Inc.,56.98649978637695,2019-07-24
Alphabet Inc.,56.797000885009766,2019-07-25
Alphabet Inc.,62.26100158691406,2019-07-26
Alphabet Inc.,62.09199905395508,2019-07-29
Alphabet Inc.,61.400001525878906,2019-07-30
Alphabet Inc.,60.90999984741211,2019-07-31
Alphabet Inc.,60.5890007019043,2019-08-01
Alphabet Inc.,59.816001892089844,2019-08-02
Alphabet Inc.,57.73749923706055,2019-08-05
Alphabet Inc.,58.55400085449219,2019-08-06
Alphabet Inc.,58.795501708984375,2019-08-07
Alphabet Inc.,60.30950164794922,2019-08-08
Alphabet Inc.,59.44499969482422,2019-08-09
Alphabet Inc.,58.724998474121094,2019-08-12
Alphabet Inc.,59.83649826049805,2019-08-13
Alphabet Inc.,58.212501525878906,2019-08-14
Alphabet Inc.,58.465999603271484,2019-08-15
Alphabet Inc.,58.96049880981445,2019-08-16
Alphabet Inc.,60.02199935913086,2019-08-19
Alphabet Inc.,59.17649841308594,2019-08-20
Alphabet Inc.,59.57899856567383,2019-08-21
Alphabet Inc.,59.57600021362305,2019-08-22
Alphabet Inc.,57.67900085449219,2019-08-23
Alphabet Inc.,58.558998107910156,2019-08-26
Alphabet Inc.,58.54100036621094,2019-08-27
Alphabet Inc.,58.6875,2019-08-28
Alphabet Inc.,59.71200180053711,2019-08-29
Alphabet Inc.,59.5265007019043,2019-08-30
Alphabet Inc.,58.477500915527344,2019-09-03
Alphabet Inc.,59.11349868774414,2019-09-04
Alphabet Inc.,60.609500885009766,2019-09-05
Alphabet Inc.,60.316001892089844,2019-09-06
Alphabet Inc.,60.26350021362305,2019-09-09
Alphabet Inc.,60.28499984741211,2019-09-10
Alphabet Inc.,61.0,2019-09-11
Alphabet Inc.,61.74850082397461,2019-09-12
Alphabet Inc.,62.00149917602539,2019-09-13
Alphabet Inc.,61.58150100708008,2019-09-16
Alphabet Inc.,61.49399948120117,2019-09-17
Alphabet Inc.,61.63249969482422,2019-09-18
Alphabet Inc.,61.9375,2019-09-19
Alphabet Inc.,61.492000579833984,2019-09-20
Alphabet Inc.,61.734500885009766,2019-09-23
Alphabet Inc.,60.916500091552734,2019-09-24
Alphabet Inc.,62.297000885009766,2019-09-25
Alphabet Inc.,62.114498138427734,2019-09-26
Alphabet Inc.,61.29750061035156,2019-09-27
Alphabet Inc.,61.05699920654297,2019-09-30
Alphabet Inc.,60.29999923706055,2019-10-01
Alphabet Inc.,58.895999908447266,2019-10-02
Alphabet Inc.,59.471500396728516,2019-10-03
Alphabet Inc.,60.54800033569336,2019-10-04
Alphabet Inc.,60.412498474121094,2019-10-07
Alphabet Inc.,59.506500244140625,2019-10-08
Alphabet Inc.,60.119998931884766,2019-10-09
Alphabet Inc.,60.4734992980957,2019-10-10
Alphabet Inc.,60.785499572753906,2019-10-11
Alphabet Inc.,60.88850021362305,2019-10-14
Alphabet Inc.,62.11199951171875,2019-10-15
Alphabet Inc.,62.150001525878906,2019-10-16
Alphabet Inc.,62.63999938964844,2019-10-17
Alphabet Inc.,62.22050094604492,2019-10-18
Alphabet Inc.,62.2140007019043,2019-10-21
Alphabet Inc.,62.060001373291016,2019-10-22
Alphabet Inc.,62.881500244140625,2019-10-23
Alphabet Inc.,62.955501556396484,2019-10-24
Alphabet Inc.,63.21500015258789,2019-10-25
Alphabet Inc.,64.4489974975586,2019-10-28
Alphabet Inc.,63.03300094604492,2019-10-29
Alphabet Inc.,63.03499984741211,2019-10-30
Alphabet Inc.,62.939998626708984,2019-10-31
Alphabet Inc.,63.61249923706055,2019-11-01
Alphabet Inc.,64.48049926757812,2019-11-04
Alphabet Inc.,64.5719985961914,2019-11-05
Alphabet Inc.,64.55049896240234,2019-11-06
Alphabet Inc.,65.34700012207031,2019-11-07
Alphabet Inc.,65.44999694824219,2019-11-08
Alphabet Inc.,64.91400146484375,2019-11-11
Alphabet Inc.,64.8604965209961,2019-11-12
Alphabet Inc.,64.80899810791016,2019-11-13
Alphabet Inc.,65.4574966430664,2019-11-14
Alphabet Inc.,66.677001953125,2019-11-15
Alphabet Inc.,65.99199676513672,2019-11-18
Alphabet Inc.,65.62950134277344,2019-11-19
Alphabet Inc.,65.09300231933594,2019-11-20
Alphabet Inc.,65.00700378417969,2019-11-21
Alphabet Inc.,64.68350219726562,2019-11-22
Alphabet Inc.,65.28199768066406,2019-11-25
Alphabet Inc.,65.6500015258789,2019-11-26
Alphabet Inc.,65.60649871826172,2019-11-27
Alphabet Inc.,65.20449829101562,2019-11-29
Alphabet Inc.,64.44300079345703,2019-12-02
Alphabet Inc.,64.73699951171875,2019-12-03
Alphabet Inc.,65.9469985961914,2019-12-04
Alphabet Inc.,66.3479995727539,2019-12-05
Alphabet Inc.,66.96949768066406,2019-12-06
Alphabet Inc.,67.14949798583984,2019-12-09
Alphabet Inc.,67.14450073242188,2019-12-10
Alphabet Inc.,67.2125015258789,2019-12-11
Alphabet Inc.,67.42449951171875,2019-12-12
Alphabet Inc.,67.34349822998047,2019-12-13
Alphabet Inc.,68.03500366210938,2019-12-16
Alphabet Inc.,67.74449920654297,2019-12-17
Alphabet Inc.,67.59549713134766,2019-12-18
Alphabet Inc.,67.8219985961914,2019-12-19
Alphabet Inc.,67.56099700927734,2019-12-20
Alphabet Inc.,67.53150177001953,2019-12-23
Alphabet Inc.,67.22149658203125,2019-12-24
Alphabet Inc.,68.12349700927734,2019-12-26
Alphabet Inc.,67.73200225830078,2019-12-27
Alphabet Inc.,66.9854965209961,2019-12-30
Alphabet Inc.,66.96949768066406,2019-12-31
Alphabet Inc.,68.43399810791016,2020-01-02
Alphabet Inc.,68.07599639892578,2020-01-03
Alphabet Inc.,69.8905029296875,2020-01-06
Alphabet Inc.,69.75550079345703,2020-01-07
Alphabet Inc.,70.25199890136719,2020-01-08
Alphabet Inc.,70.989501953125,2020-01-09
Alphabet Inc.,71.447998046875,2020-01-10
Alphabet Inc.,72.00150299072266,2020-01-13
Alphabet Inc.,71.52950286865234,2020-01-14
Alphabet Inc.,71.95999908447266,2020-01-15
Alphabet Inc.,72.50800323486328,2020-01-16
Alphabet Inc.,73.97599792480469,2020-01-17
Alphabet Inc.,74.11250305175781,2020-01-21
Alphabet Inc.,74.19349670410156,2020-01-22
Alphabet Inc.,74.2344970703125,2020-01-23
Alphabet Inc.,73.30850219726562,2020-01-24
Alphabet Inc.,71.58650207519531,2020-01-27
Alphabet Inc.,72.5250015258789,2020-01-28
Alphabet Inc.,72.83499908447266,2020-01-29
Alphabet Inc.,72.7125015258789,2020-01-30
Alphabet Inc.,71.63899993896484,2020-01-31
Alphabet Inc.,74.12999725341797,2020-02-03
Alphabet Inc.,72.27050018310547,2020-02-04
Alphabet Inc.,72.30249786376953,2020-02-05
Alphabet Inc.,73.79850006103516,2020-02-06
Alphabet Inc.,73.95549774169922,2020-02-07
Alphabet Inc.,75.43299865722656,2020-02-10
Alphabet Inc.,75.50299835205078,2020-02-11
Alphabet Inc.,75.93150329589844,2020-02-12
Alphabet Inc.,75.66950225830078,2020-02-13
Alphabet Inc.,75.9365005493164,2020-02-14
Alphabet Inc.,75.97200012207031,2020-02-18
Alphabet Inc.,76.24349975585938,2020-02-19
Alphabet Inc.,75.84950256347656,2020-02-20
Alphabet Inc.,74.1729965209961,2020-02-21
Alphabet Inc.,70.99299621582031,2020-02-24
Alphabet Inc.,69.31600189208984,2020-02-25
Alphabet Inc.,69.52349853515625,2020-02-26
Alphabet Inc.,65.74749755859375,2020-02-27
Alphabet Inc.,66.9625015258789,2020-02-28
Alphabet Inc.,69.31600189208984,2020-03-02
Alphabet Inc.,66.88600158691406,2020-03-03
Alphabet Inc.,69.08000183105469,2020-03-04
Alphabet Inc.,65.73799896240234,2020-03-05
Alphabet Inc.,64.78700256347656,2020-03-06
Alphabet Inc.,60.78950119018555,2020-03-09
Alphabet Inc.,63.75849914550781,2020-03-10
Alphabet Inc.,60.54499816894531,2020-03-11
Alphabet Inc.,55.57749938964844,2020-03-12
Alphabet Inc.,60.7135009765625,2020-03-13
Alphabet Inc.,53.650001525878906,2020-03-16
Alphabet Inc.,55.90299987792969,2020-03-17
Alphabet Inc.,54.55950164794922,2020-03-18
Alphabet Inc.,55.583499908447266,2020-03-19
Alphabet Inc.,53.410499572753906,2020-03-20
Alphabet Inc.,52.70650100708008,2020-03-23
Alphabet Inc.,56.5004997253418,2020-03-24
Alphabet Inc.,55.08100128173828,2020-03-25
Alphabet Inc.,58.145999908447266,2020-03-26
Alphabet Inc.,55.51300048828125,2020-03-27
Alphabet Inc.,57.31549835205078,2020-03-30
Alphabet Inc.,58.09749984741211,2020-03-31
Alphabet Inc.,55.10499954223633,2020-04-01
Alphabet Inc.,55.85150146484375,2020-04-02
Alphabet Inc.,54.6349983215332,2020-04-03
Alphabet Inc.,59.15950012207031,2020-04-06
Alphabet Inc.,59.12799835205078,2020-04-07
Alphabet Inc.,60.349998474121094,2020-04-08
Alphabet Inc.,60.32849884033203,2020-04-09
Alphabet Inc.,60.52050018310547,2020-04-13
Alphabet Inc.,63.26150131225586,2020-04-14
Alphabet Inc.,62.8650016784668,2020-04-15
Alphabet Inc.,62.871498107910156,2020-04-16
Alphabet Inc.,63.95000076293945,2020-04-17
Alphabet Inc.,63.057498931884766,2020-04-20
Alphabet Inc.,60.608001708984375,2020-04-21
Alphabet Inc.,62.920501708984375,2020-04-22
Alphabet Inc.,63.55849838256836,2020-04-23
Alphabet Inc.,63.83000183105469,2020-04-24
Alphabet Inc.,63.542999267578125,2020-04-27
Alphabet Inc.,61.62950134277344,2020-04-28
Alphabet Inc.,67.10900115966797,2020-04-29
Alphabet Inc.,67.33499908447266,2020-04-30
Alphabet Inc.,65.86599731445312,2020-05-01
Alphabet Inc.,66.1449966430664,2020-05-04
Alphabet Inc.,67.45099639892578,2020-05-05
Alphabet Inc.,67.27149963378906,2020-05-06
Alphabet Inc.,68.46399688720703,2020-05-07
Alphabet Inc.,69.21700286865234,2020-05-08
Alphabet Inc.,70.17949676513672,2020-05-11
Alphabet Inc.,68.75900268554688,2020-05-12
Alphabet Inc.,67.41649627685547,2020-05-13
Alphabet Inc.,67.84300231933594,2020-05-14
Alphabet Inc.,68.65299987792969,2020-05-15
Alphabet Inc.,69.25900268554688,2020-05-18
Alphabet Inc.,68.72000122070312,2020-05-19
Alphabet Inc.,70.45800018310547,2020-05-20
Alphabet Inc.,70.3375015258789,2020-05-21
Alphabet Inc.,70.66200256347656,2020-05-22
Alphabet Inc.,71.06849670410156,2020-05-26
Alphabet Inc.,71.01399993896484,2020-05-27
Alphabet Inc.,70.91200256347656,2020-05-28
Alphabet Inc.,71.6760025024414,2020-05-29
Alphabet Inc.,71.74349975585938,2020-06-01
Alphabet Inc.,72.1155014038086,2020-06-02
Alphabet Inc.,71.9625015258789,2020-06-03
Alphabet Inc.,70.71499633789062,2020-06-04
Alphabet Inc.,72.0009994506836,2020-06-05
Alphabet Inc.,72.4020004272461,2020-06-08
Alphabet Inc.,72.60399627685547,2020-06-09
Alphabet Inc.,73.23500061035156,2020-06-10
Alphabet Inc.,70.09500122070312,2020-06-11
Alphabet Inc.,70.64600372314453,2020-06-12
Alphabet Inc.,71.03700256347656,2020-06-15
Alphabet Inc.,72.32350158691406,2020-06-16
Alphabet Inc.,72.62699890136719,2020-06-17
Alphabet Inc.,71.70600128173828,2020-06-18
Alphabet Inc.,71.23200225830078,2020-06-19
Alphabet Inc.,72.53299713134766,2020-06-22
Alphabet Inc.,73.1989974975586,2020-06-23
Alphabet Inc.,71.63500213623047,2020-06-24
Alphabet Inc.,72.05500030517578,2020-06-25
Alphabet Inc.,68.12699890136719,2020-06-26
Alphabet Inc.,69.8584976196289,2020-06-29
Alphabet Inc.,70.90249633789062,2020-06-30
Alphabet Inc.,72.0999984741211,2020-07-01
Alphabet Inc.,73.49649810791016,2020-07-02
Alphabet Inc.,74.98249816894531,2020-07-06
Alphabet Inc.,74.49600219726562,2020-07-07
Alphabet Inc.,75.18000030517578,2020-07-08
Alphabet Inc.,75.93299865722656,2020-07-09
Alphabet Inc.,76.95050048828125,2020-07-10
Alphabet Inc.,75.61150360107422,2020-07-13
Alphabet Inc.,76.04299926757812,2020-07-14
Alphabet Inc.,75.84400177001953,2020-07-15
Alphabet Inc.,75.74600219726562,2020-07-16
Alphabet Inc.,75.84249877929688,2020-07-17
Alphabet Inc.,78.19200134277344,2020-07-20
Alphabet Inc.,77.7959976196289,2020-07-21
Alphabet Inc.,78.24250030517578,2020-07-22
Alphabet Inc.,75.8375015258789,2020-07-23
Alphabet Inc.,75.4104995727539,2020-07-24
Alphabet Inc.,76.47149658203125,2020-07-27
Alphabet Inc.,75.18250274658203,2020-07-28
Alphabet Inc.,76.17549896240234,2020-07-29
Alphabet Inc.,76.91850280761719,2020-07-30
Alphabet Inc.,74.39749908447266,2020-07-31
Alphabet Inc.,74.13800048828125,2020-08-03
Alphabet Inc.,73.66500091552734,2020-08-04
Alphabet Inc.,73.95449829101562,2020-08-05
Alphabet Inc.,75.24749755859375,2020-08-06
Alphabet Inc.,74.91850280761719,2020-08-07
Alphabet Inc.,74.84100341796875,2020-08-10
Alphabet Inc.,74.0270004272461,2020-08-11
Alphabet Inc.,75.36199951171875,2020-08-12
Alphabet Inc.,75.8324966430664,2020-08-13
Alphabet Inc.,75.23149871826172,2020-08-14
Alphabet Inc.,75.81199645996094,2020-08-17
Alphabet Inc.,77.78900146484375,2020-08-18
Alphabet Inc.,77.23049926757812,2020-08-19
Alphabet Inc.,78.8125,2020-08-20
Alphabet Inc.,78.77850341796875,2020-08-21
Alphabet Inc.,79.25749969482422,2020-08-24
Alphabet Inc.,80.2925033569336,2020-08-25
Alphabet Inc.,82.20649719238281,2020-08-26
Alphabet Inc.,81.4260025024414,2020-08-27
Alphabet Inc.,81.97149658203125,2020-08-28
Alphabet Inc.,81.47650146484375,2020-08-31
Alphabet Inc.,82.75399780273438,2020-09-01
Alphabet Inc.,85.86949920654297,2020-09-02
Alphabet Inc.,81.47550201416016,2020-09-03
Alphabet Inc.,79.06050109863281,2020-09-04
Alphabet Inc.,76.18000030517578,2020-09-08
Alphabet Inc.,77.36150360107422,2020-09-09
Alphabet Inc.,76.30249786376953,2020-09-10
Alphabet Inc.,75.78800201416016,2020-09-11
Alphabet Inc.,75.44149780273438,2020-09-14
Alphabet Inc.,76.75599670410156,2020-09-15
Alphabet Inc.,75.60449981689453,2020-09-16
Alphabet Inc.,74.35199737548828,2020-09-17
Alphabet Inc.,72.55449676513672,2020-09-18
Alphabet Inc.,71.50700378417969,2020-09-21
Alphabet Inc.,72.99099731445312,2020-09-22
Alphabet Inc.,70.46949768066406,2020-09-23
Alphabet Inc.,71.14299774169922,2020-09-24
Alphabet Inc.,71.9530029296875,2020-09-25
Alphabet Inc.,72.93299865722656,2020-09-28
Alphabet Inc.,73.3010025024414,2020-09-29
Alphabet Inc.,73.27999877929688,2020-09-30
Alphabet Inc.,74.3949966430664,2020-10-01
Alphabet Inc.,72.77999877929688,2020-10-02
Alphabet Inc.,74.1415023803711,2020-10-05
Alphabet Inc.,72.5510025024414,2020-10-06
Alphabet Inc.,72.95700073242188,2020-10-07
Alphabet Inc.,74.17150115966797,2020-10-08
Alphabet Inc.,75.52249908447266,2020-10-09
Alphabet Inc.,78.22949981689453,2020-10-12
Alphabet Inc.,78.35350036621094,2020-10-13
Alphabet Inc.,78.1719970703125,2020-10-14
Alphabet Inc.,77.77349853515625,2020-10-15
Alphabet Inc.,78.38500213623047,2020-10-16
Alphabet Inc.,76.49749755859375,2020-10-19
Alphabet Inc.,77.55400085449219,2020-10-20
Alphabet Inc.,79.29949951171875,2020-10-21
Alphabet Inc.,80.33300018310547,2020-10-22
Alphabet Inc.,81.64900207519531,2020-10-23
Alphabet Inc.,79.2145004272461,2020-10-26
Alphabet Inc.,79.94400024414062,2020-10-27
Alphabet Inc.,75.54000091552734,2020-10-28
Alphabet Inc.,77.84400177001953,2020-10-29
Alphabet Inc.,80.80549621582031,2020-10-30
Alphabet Inc.,81.21600341796875,2020-11-02
Alphabet Inc.,82.28299713134766,2020-11-03
Alphabet Inc.,87.2925033569336,2020-11-04
Alphabet Inc.,88.125,2020-11-05
Alphabet Inc.,87.98650360107422,2020-11-06
Alphabet Inc.,88.07099914550781,2020-11-09
Alphabet Inc.,86.88600158691406,2020-11-10
Alphabet Inc.,87.36150360107422,2020-11-11
Alphabet Inc.,87.14099884033203,2020-11-12
Alphabet Inc.,88.61299896240234,2020-11-13
Alphabet Inc.,88.70149993896484,2020-11-16
Alphabet Inc.,88.08300018310547,2020-11-17
Alphabet Inc.,87.03199768066406,2020-11-18
Alphabet Inc.,87.92849731445312,2020-11-19
Alphabet Inc.,86.81900024414062,2020-11-20
Alphabet Inc.,86.37799835205078,2020-11-23
Alphabet Inc.,88.19499969482422,2020-11-24
Alphabet Inc.,88.20649719238281,2020-11-25
Alphabet Inc.,89.35099792480469,2020-11-27
Alphabet Inc.,87.72000122070312,2020-11-30
Alphabet Inc.,89.76799774169922,2020-12-01
Alphabet Inc.,91.24849700927734,2020-12-02
Alphabet Inc.,91.09200286865234,2020-12-03
Alphabet Inc.,91.18800354003906,2020-12-04
Alphabet Inc.,90.85150146484375,2020-12-07
Alphabet Inc.,90.56649780273438,2020-12-08
Alphabet Inc.,88.89299774169922,2020-12-09
Alphabet Inc.,88.38249969482422,2020-12-10
Alphabet Inc.,88.73999786376953,2020-12-11
Alphabet Inc.,87.61299896240234,2020-12-14
Alphabet Inc.,88.05400085449219,2020-12-15
Alphabet Inc.,87.8594970703125,2020-12-16
Alphabet Inc.,87.02549743652344,2020-12-17
Alphabet Inc.,86.31099700927734,2020-12-18
Alphabet Inc.,86.72799682617188,2020-12-21
Alphabet Inc.,86.01100158691406,2020-12-22
Alphabet Inc.,86.4114990234375,2020-12-23
Alphabet Inc.,86.70800018310547,2020-12-24
Alphabet Inc.,88.697998046875,2020-12-28
Alphabet Inc.,87.88800048828125,2020-12-29
Alphabet Inc.,86.8125,2020-12-30
Alphabet Inc.,87.63200378417969,2020-12-31
Alphabet Inc.,86.30650329589844,2021-01-04
Alphabet Inc.,87.00250244140625,2021-01-05
Alphabet Inc.,86.14399719238281,2021-01-06
Alphabet Inc.,88.71700286865234,2021-01-07
Alphabet Inc.,89.8915023803711,2021-01-08
Alphabet Inc.,87.81449890136719,2021-01-11
Alphabet Inc.,86.87149810791016,2021-01-12
Alphabet Inc.,87.36250305175781,2021-01-13
Alphabet Inc.,86.5459976196289,2021-01-14
Alphabet Inc.,86.38099670410156,2021-01-15
Alphabet Inc.,89.22350311279297,2021-01-19
Alphabet Inc.,94.00350189208984,2021-01-20
Alphabet Inc.,94.2074966430664,2021-01-21
Alphabet Inc.,94.62799835205078,2021-01-22
Alphabet Inc.,94.71399688720703,2021-01-25
Alphabet Inc.,95.39749908447266,2021-01-26
Alphabet Inc.,90.9469985961914,2021-01-27
Alphabet Inc.,92.66000366210938,2021-01-28
Alphabet Inc.,91.36799621582031,2021-01-29
Alphabet Inc.,94.65350341796875,2021-02-01
Alphabet Inc.,95.95600128173828,2021-02-02
Alphabet Inc.,102.94400024414062,2021-02-03
Alphabet Inc.,102.68150329589844,2021-02-04
Alphabet Inc.,104.44149780273438,2021-02-05
Alphabet Inc.,104.22599792480469,2021-02-08
Alphabet Inc.,103.76950073242188,2021-02-09
Alphabet Inc.,104.3239974975586,2021-02-10
Alphabet Inc.,104.4375,2021-02-11
Alphabet Inc.,104.75150299072266,2021-02-12
Alphabet Inc.,105.53500366210938,2021-02-16
Alphabet Inc.,105.93099975585938,2021-02-17
Alphabet Inc.,105.29049682617188,2021-02-18
Alphabet Inc.,104.44049835205078,2021-02-19
Alphabet Inc.,102.71299743652344,2021-02-22
Alphabet Inc.,103.00599670410156,2021-02-23
Alphabet Inc.,104.19049835205078,2021-02-24
Alphabet Inc.,100.79750061035156,2021-02-25
Alphabet Inc.,101.09549713134766,2021-02-26
Alphabet Inc.,103.48300170898438,2021-03-01
Alphabet Inc.,103.2239990234375,2021-03-02
Alphabet Inc.,100.57050323486328,2021-03-03
Alphabet Inc.,101.69650268554688,2021-03-04
Alphabet Inc.,104.85350036621094,2021-03-05
Alphabet Inc.,100.375,2021-03-08
Alphabet Inc.,102.01799774169922,2021-03-09
Alphabet Inc.,101.80950164794922,2021-03-10
Alphabet Inc.,105.0270004272461,2021-03-11
Alphabet Inc.,102.5,2021-03-12
Alphabet Inc.,102.72200012207031,2021-03-15
Alphabet Inc.,104.19450378417969,2021-03-16
Alphabet Inc.,104.11100006103516,2021-03-17
Alphabet Inc.,101.06700134277344,2021-03-18
Alphabet Inc.,101.3479995727539,2021-03-19
Alphabet Inc.,101.53450012207031,2021-03-22
Alphabet Inc.,102.06649780273438,2021-03-23
Alphabet Inc.,101.62650299072266,2021-03-24
Alphabet Inc.,101.62300109863281,2021-03-25
Alphabet Inc.,101.23650360107422,2021-03-26
Alphabet Inc.,102.28949737548828,2021-03-29
Alphabet Inc.,102.32350158691406,2021-03-30
Alphabet Inc.,103.1259994506836,2021-03-31
Alphabet Inc.,106.48899841308594,2021-04-01
Alphabet Inc.,110.947998046875,2021-04-05
Alphabet Inc.,110.46299743652344,2021-04-06
Alphabet Inc.,111.95149993896484,2021-04-07
Alphabet Inc.,112.52149963378906,2021-04-08
Alphabet Inc.,113.53350067138672,2021-04-09
Alphabet Inc.,112.23100280761719,2021-04-12
Alphabet Inc.,112.72149658203125,2021-04-13
Alphabet Inc.,112.09549713134766,2021-04-14
Alphabet Inc.,114.26249694824219,2021-04-15
Alphabet Inc.,114.13749694824219,2021-04-16
Alphabet Inc.,114.48799896240234,2021-04-19
Alphabet Inc.,113.95050048828125,2021-04-20
Alphabet Inc.,113.9175033569336,2021-04-21
Alphabet Inc.,112.6259994506836,2021-04-22
Alphabet Inc.,114.99649810791016,2021-04-23
Alphabet Inc.,115.49649810791016,2021-04-26
Alphabet Inc.,114.54900360107422,2021-04-27
Alphabet Inc.,117.9520034790039,2021-04-28
Alphabet Inc.,119.63800048828125,2021-04-29
Alphabet Inc.,117.67500305175781,2021-04-30
Alphabet Inc.,117.15399932861328,2021-05-03
Alphabet Inc.,115.34149932861328,2021-05-04
Alphabet Inc.,115.7385025024414,2021-05-05
Alphabet Inc.,116.86750030517578,2021-05-06
Alphabet Inc.,117.59649658203125,2021-05-07
Alphabet Inc.,114.5875015258789,2021-05-10
Alphabet Inc.,113.50299835205078,2021-05-11
Alphabet Inc.,110.01249694824219,2021-05-12
Alphabet Inc.,111.4520034790039,2021-05-13
Alphabet Inc.,113.91899871826172,2021-05-14
Alphabet Inc.,114.44599914550781,2021-05-17
Alphabet Inc.,113.12349700927734,2021-05-18
Alphabet Inc.,113.57499694824219,2021-05-19
Alphabet Inc.,115.34750366210938,2021-05-20
Alphabet Inc.,114.70649719238281,2021-05-21
Alphabet Inc.,118.052001953125,2021-05-24
Alphabet Inc.,118.14350128173828,2021-05-25
Alphabet Inc.,119.0155029296875,2021-05-26
Alphabet Inc.,118.13400268554688,2021-05-27
Alphabet Inc.,117.84249877929688,2021-05-28
Alphabet Inc.,119.05899810791016,2021-06-01
Alphabet Inc.,118.52950286865234,2021-06-02
Alphabet Inc.,117.37899780273438,2021-06-03
Alphabet Inc.,119.67849731445312,2021-06-04
Alphabet Inc.,120.11499786376953,2021-06-07
Alphabet Inc.,119.9219970703125,2021-06-08
Alphabet Inc.,120.39700317382812,2021-06-09
Alphabet Inc.,121.75650024414062,2021-06-10
Alphabet Inc.,121.51000213623047,2021-06-11
Alphabet Inc.,122.44550323486328,2021-06-14
Alphabet Inc.,121.41950225830078,2021-06-15
Alphabet Inc.,120.77249908447266,2021-06-16
Alphabet Inc.,121.74349975585938,2021-06-17
Alphabet Inc.,120.11100006103516,2021-06-18
Alphabet Inc.,121.8125,2021-06-21
Alphabet Inc.,122.33049774169922,2021-06-22
Alphabet Inc.,122.12699890136719,2021-06-23
Alphabet Inc.,122.5,2021-06-24
Alphabet Inc.,122.50849914550781,2021-06-25
Alphabet Inc.,122.53600311279297,2021-06-28
Alphabet Inc.,122.27249908447266,2021-06-29
Alphabet Inc.,122.0895004272461,2021-06-30
Alphabet Inc.,122.44450378417969,2021-07-01
Alphabet Inc.,125.25749969482422,2021-07-02
Alphabet Inc.,126.19000244140625,2021-07-06
Alphabet Inc.,126.4739990234375,2021-07-07
Alphabet Inc.,125.04399871826172,2021-07-08
Alphabet Inc.,125.51850128173828,2021-07-09
Alphabet Inc.,126.97550201416016,2021-07-12
Alphabet Inc.,127.34149932861328,2021-07-13
Alphabet Inc.,128.23699951171875,2021-07-14
Alphabet Inc.,127.00499725341797,2021-07-15
Alphabet Inc.,126.97000122070312,2021-07-16
Alphabet Inc.,124.5780029296875,2021-07-19
Alphabet Inc.,126.20950317382812,2021-07-20
Alphabet Inc.,127.54900360107422,2021-07-21
Alphabet Inc.,128.42149353027344,2021-07-22
Alphabet Inc.,133.01499938964844,2021-07-23
Alphabet Inc.,134.03500366210938,2021-07-26
Alphabet Inc.,131.89999389648438,2021-07-27
Alphabet Inc.,136.093994140625,2021-07-28
Alphabet Inc.,135.77749633789062,2021-07-29
Alphabet Inc.,134.72650146484375,2021-07-30
Alphabet Inc.,134.85450744628906,2021-08-02
Alphabet Inc.,135.6300048828125,2021-08-03
Alphabet Inc.,135.12550354003906,2021-08-04
Alphabet Inc.,136.25149536132812,2021-08-05
Alphabet Inc.,135.73849487304688,2021-08-06
Alphabet Inc.,136.91299438476562,2021-08-09
Alphabet Inc.,136.8070068359375,2021-08-10
Alphabet Inc.,136.2790069580078,2021-08-11
Alphabet Inc.,137.19400024414062,2021-08-12
Alphabet Inc.,137.7274932861328,2021-08-13
Alphabet Inc.,138.3094940185547,2021-08-16
Alphabet Inc.,136.6614990234375,2021-08-17
Alphabet Inc.,135.44900512695312,2021-08-18
Alphabet Inc.,135.67999267578125,2021-08-19
Alphabet Inc.,137.42950439453125,2021-08-20
Alphabet Inc.,140.04150390625,2021-08-23
Alphabet Inc.,141.26150512695312,2021-08-24
Alphabet Inc.,142.07899475097656,2021-08-25
Alphabet Inc.,141.4405059814453,2021-08-26
Alphabet Inc.,144.00399780273438,2021-08-27
Alphabet Inc.,144.5904998779297,2021-08-30
Alphabet Inc.,144.69749450683594,2021-08-31
Alphabet Inc.,145.2154998779297,2021-09-01
Alphabet Inc.,143.28700256347656,2021-09-02
Alphabet Inc.,143.739501953125,2021-09-03
Alphabet Inc.,144.28050231933594,2021-09-07
Alphabet Inc.,143.6909942626953,2021-09-08
Alphabet Inc.,143.54100036621094,2021-09-09
Alphabet Inc.,140.87600708007812,2021-09-10
Alphabet Inc.,142.33250427246094,2021-09-13
Alphabet Inc.,142.54449462890625,2021-09-14
Alphabet Inc.,144.42950439453125,2021-09-15
Alphabet Inc.,143.61000061035156,2021-09-16
Alphabet Inc.,140.8000030517578,2021-09-17
Alphabet Inc.,138.71949768066406,2021-09-20
Alphabet Inc.,139.0330047607422,2021-09-21
Alphabet Inc.,140.2834930419922,2021-09-22
Alphabet Inc.,141.21600341796875,2021-09-23
Alphabet Inc.,142.21499633789062,2021-09-24
Alphabet Inc.,141.07200622558594,2021-09-27
Alphabet Inc.,135.8300018310547,2021-09-28
Alphabet Inc.,134.35350036621094,2021-09-29
Alphabet Inc.,133.67599487304688,2021-09-30
Alphabet Inc.,136.54299926757812,2021-10-01
Alphabet Inc.,133.6595001220703,2021-10-04
Alphabet Inc.,136.0229949951172,2021-10-05
Alphabet Inc.,137.56500244140625,2021-10-06
Alphabet Inc.,139.22500610351562,2021-10-07
Alphabet Inc.,139.78550720214844,2021-10-08
Alphabet Inc.,138.91400146484375,2021-10-11
Alphabet Inc.,136.44900512695312,2021-10-12
Alphabet Inc.,137.58200073242188,2021-10-13
Alphabet Inc.,141.1510009765625,2021-10-14
Alphabet Inc.,141.3679962158203,2021-10-15
Alphabet Inc.,142.7779998779297,2021-10-18
Alphabet Inc.,143.23699951171875,2021-10-19
Alphabet Inc.,141.7689971923828,2021-10-20
Alphabet Inc.,141.88600158691406,2021-10-21
Alphabet Inc.,137.56649780273438,2021-10-22
Alphabet Inc.,137.44700622558594,2021-10-25
Alphabet Inc.,139.30850219726562,2021-10-26
Alphabet Inc.,146.21749877929688,2021-10-27
Alphabet Inc.,145.8489990234375,2021-10-28
Alphabet Inc.,148.04600524902344,2021-10-29
Alphabet Inc.,143.4969940185547,2021-11-01
Alphabet Inc.,145.4324951171875,2021-11-02
Alphabet Inc.,146.59800720214844,2021-11-03
Alphabet Inc.,148.2675018310547,2021-11-04
Alphabet Inc.,148.8520050048828,2021-11-05
Alphabet Inc.,149.031005859375,2021-11-08
Alphabet Inc.,148.9185028076172,2021-11-09
Alphabet Inc.,145.89349365234375,2021-11-10
Alphabet Inc.,145.76649475097656,2021-11-11
Alphabet Inc.,148.67799377441406,2021-11-12
Alphabet Inc.,148.45199584960938,2021-11-15
Alphabet Inc.,147.87600708007812,2021-11-16
Alphabet Inc.,148.0469970703125,2021-11-17
Alphabet Inc.,149.8385009765625,2021-11-18
Alphabet Inc.,148.92649841308594,2021-11-19
Alphabet Inc.,146.302001953125,2021-11-22
Alphabet Inc.,145.78199768066406,2021-11-23
Alphabet Inc.,146.1199951171875,2021-11-24
Alphabet Inc.,142.18299865722656,2021-11-26
Alphabet Inc.,145.53050231933594,2021-11-29
Alphabet Inc.,141.8975067138672,2021-11-30
Alphabet Inc.,141.05149841308594,2021-12-01
Alphabet Inc.,142.96600341796875,2021-12-02
Alphabet Inc.,142.00149536132812,2021-12-03
Alphabet Inc.,143.15499877929688,2021-12-06
Alphabet Inc.,147.26950073242188,2021-12-07
Alphabet Inc.,148.18649291992188,2021-12-08
Alphabet Inc.,147.6385040283203,2021-12-09
Alphabet Inc.,148.00149536132812,2021-12-10
Alphabet Inc.,145.82650756835938,2021-12-13
Alphabet Inc.,143.90699768066406,2021-12-14
Alphabet Inc.,146.4409942626953,2021-12-15
Alphabet Inc.,144.44500732421875,2021-12-16
Alphabet Inc.,141.72500610351562,2021-12-17
Alphabet Inc.,141.60699462890625,2021-12-20
Alphabet Inc.,143.47250366210938,2021-12-21
Alphabet Inc.,146.4149932861328,2021-12-22
Alphabet Inc.,146.91650390625,2021-12-23
Alphabet Inc.,147.906494140625,2021-12-27
Alphabet Inc.,146.68699645996094,2021-12-28
Alphabet Inc.,146.65499877929688,2021-12-29
Alphabet Inc.,146.20050048828125,2021-12-30
Alphabet Inc.,144.8520050048828,2021-12-31
Alphabet Inc.,144.9915008544922,2022-01-03
Alphabet Inc.,144.39950561523438,2022-01-04
Alphabet Inc.,137.77499389648438,2022-01-05
Alphabet Inc.,137.74749755859375,2022-01-06
Alphabet Inc.,137.01699829101562,2022-01-07
Alphabet Inc.,138.66949462890625,2022-01-10
Alphabet Inc.,139.73599243164062,2022-01-11
Alphabet Inc.,141.4304962158203,2022-01-12
Alphabet Inc.,138.58700561523438,2022-01-13
Alphabet Inc.,139.48049926757812,2022-01-14
Alphabet Inc.,135.9980010986328,2022-01-18
Alphabet Inc.,135.1165008544922,2022-01-19
Alphabet Inc.,133.3074951171875,2022-01-20
Alphabet Inc.,130.35150146484375,2022-01-21
Alphabet Inc.,130.8040008544922,2022-01-24
Alphabet Inc.,126.93499755859375,2022-01-25
Alphabet Inc.,129.23300170898438,2022-01-26
Alphabet Inc.,129.0050048828125,2022-01-27
Alphabet Inc.,133.3509979248047,2022-01-28
Alphabet Inc.,135.30349731445312,2022-01-31
Alphabet Inc.,137.6439971923828,2022-02-01
Alphabet Inc.,148.0,2022-02-02
Alphabet Inc.,143.08999633789062,2022-02-03
Alphabet Inc.,143.29299926757812,2022-02-04
Alphabet Inc.,139.2010040283203,2022-02-07
Alphabet Inc.,139.3990020751953,2022-02-08
Alphabet Inc.,141.5919952392578,2022-02-09
Alphabet Inc.,138.6199951171875,2022-02-10
Alphabet Inc.,134.28250122070312,2022-02-11
Alphabet Inc.,135.5260009765625,2022-02-14
Alphabet Inc.,136.60850524902344,2022-02-15
Alphabet Inc.,137.73800659179688,2022-02-16
Alphabet Inc.,132.53900146484375,2022-02-17
Alphabet Inc.,130.4029998779297,2022-02-18
Alphabet Inc.,129.81350708007812,2022-02-22
Alphabet Inc.,127.58799743652344,2022-02-23
Alphabet Inc.,132.6909942626953,2022-02-24
Alphabet Inc.,134.45950317382812,2022-02-25
Alphabet Inc.,135.0570068359375,2022-02-28
Alphabet Inc.,134.06149291992188,2022-03-01
Alphabet Inc.,134.57150268554688,2022-03-02
Alphabet Inc.,133.89950561523438,2022-03-03
Alphabet Inc.,131.906494140625,2022-03-04
Alphabet Inc.,126.37850189208984,2022-03-07
Alphabet Inc.,127.10449981689453,2022-03-08
Alphabet Inc.,133.4199981689453,2022-03-09
Alphabet Inc.,132.42950439453125,2022-03-10
Alphabet Inc.,129.87049865722656,2022-03-11
Alphabet Inc.,125.95099639892578,2022-03-14
Alphabet Inc.,129.197998046875,2022-03-15
Alphabet Inc.,133.28050231933594,2022-03-16
Alphabet Inc.,133.83900451660156,2022-03-17
Alphabet Inc.,136.12550354003906,2022-03-18
Alphabet Inc.,136.10150146484375,2022-03-21
Alphabet Inc.,139.8679962158203,2022-03-22
Alphabet Inc.,138.27549743652344,2022-03-23
Alphabet Inc.,141.57200622558594,2022-03-24
Alphabet Inc.,141.67300415039062,2022-03-25
Alphabet Inc.,141.45550537109375,2022-03-28
Alphabet Inc.,142.5054931640625,2022-03-29
Alphabet Inc.,141.93850708007812,2022-03-30
Alphabet Inc.,139.0675048828125,2022-03-31
Alphabet Inc.,140.15049743652344,2022-04-01
Alphabet Inc.,142.97149658203125,2022-04-04
Alphabet Inc.,140.59100341796875,2022-04-05
Alphabet Inc.,136.54800415039062,2022-04-06
Alphabet Inc.,135.8885040283203,2022-04-07
Alphabet Inc.,133.28750610351562,2022-04-08
Alphabet Inc.,128.82350158691406,2022-04-11
Alphabet Inc.,127.7145004272461,2022-04-12
Alphabet Inc.,129.8939971923828,2022-04-13
Alphabet Inc.,126.7300033569336,2022-04-14
Alphabet Inc.,127.67649841308594,2022-04-18
Alphabet Inc.,130.00900268554688,2022-04-19
Alphabet Inc.,128.0399932861328,2022-04-20
Alphabet Inc.,124.81449890136719,2022-04-21
Alphabet Inc.,119.635498046875,2022-04-22
Alphabet Inc.,123.0739974975586,2022-04-25
Alphabet Inc.,118.6500015258789,2022-04-26
Alphabet Inc.,114.29450225830078,2022-04-27
Alphabet Inc.,118.52249908447266,2022-04-28
Alphabet Inc.,114.1094970703125,2022-04-29
Alphabet Inc.,116.58300018310547,2022-05-02
Alphabet Inc.,117.33399963378906,2022-05-03
Alphabet Inc.,122.26100158691406,2022-05-04
Alphabet Inc.,116.50550079345703,2022-05-05
Alphabet Inc.,115.74649810791016,2022-05-06
Alphabet Inc.,112.51100158691406,2022-05-09
Alphabet Inc.,114.3949966430664,2022-05-10
Alphabet Inc.,113.60250091552734,2022-05-11
Alphabet Inc.,112.84400177001953,2022-05-12
Alphabet Inc.,116.05049896240234,2022-05-13
Alphabet Inc.,114.44499969482422,2022-05-16
Alphabet Inc.,116.4729995727539,2022-05-17
Alphabet Inc.,111.89949798583984,2022-05-18
Alphabet Inc.,110.38400268554688,2022-05-19
Alphabet Inc.,108.90799713134766,2022-05-20
Alphabet Inc.,111.48799896240234,2022-05-23
Alphabet Inc.,105.97000122070312,2022-05-24
Alphabet Inc.,105.80500030517578,2022-05-25
Alphabet Inc.,107.7925033569336,2022-05-26
Alphabet Inc.,112.31649780273438,2022-05-27
Alphabet Inc.,113.76200103759766,2022-05-31
Alphabet Inc.,113.89199829101562,2022-06-01
Alphabet Inc.,117.62249755859375,2022-06-02
Alphabet Inc.,114.54100036621094,2022-06-03
Alphabet Inc.,116.82050323486328,2022-06-06
Alphabet Inc.,117.14949798583984,2022-06-07
Alphabet Inc.,117.19400024414062,2022-06-08
Alphabet Inc.,114.83550262451172,2022-06-09
Alphabet Inc.,111.1614990234375,2022-06-10
Alphabet Inc.,106.39250183105469,2022-06-13
Alphabet Inc.,106.71549987792969,2022-06-14
Alphabet Inc.,109.7645034790039,2022-06-15
Alphabet Inc.,106.03350067138672,2022-06-16
Alphabet Inc.,107.14350128173828,2022-06-17
Alphabet Inc.,111.54399871826172,2022-06-21
Alphabet Inc.,111.48750305175781,2022-06-22
Alphabet Inc.,112.24199676513672,2022-06-23
Alphabet Inc.,117.9749984741211,2022-06-24
Alphabet Inc.,115.83350372314453,2022-06-27
Alphabet Inc.,112.00749969482422,2022-06-28
Alphabet Inc.,111.70149993896484,2022-06-29
Alphabet Inc.,108.96299743652344,2022-06-30
Alphabet Inc.,108.73750305175781,2022-07-01
Alphabet Inc.,113.26300048828125,2022-07-05
Alphabet Inc.,114.5719985961914,2022-07-06
Alphabet Inc.,118.78299713134766,2022-07-07
Alphabet Inc.,119.35350036621094,2022-07-08
Alphabet Inc.,115.67649841308594,2022-07-11
Alphabet Inc.,114.02050018310547,2022-07-12
Alphabet Inc.,111.35350036621094,2022-07-13
Alphabet Inc.,110.36750030517578,2022-07-14
Alphabet Inc.,111.77749633789062,2022-07-15
Alphabet Inc.,109.02999877929688,2022-07-18
Alphabet Inc.,113.80999755859375,2022-07-19
Alphabet Inc.,113.9000015258789,2022-07-20
Alphabet Inc.,114.33999633789062,2022-07-21
Alphabet Inc.,107.9000015258789,2022-07-22
Alphabet Inc.,107.51000213623047,2022-07-25
Alphabet Inc.,105.0199966430664,2022-07-26
Alphabet Inc.,113.05999755859375,2022-07-27
Alphabet Inc.,114.22000122070312,2022-07-28
Alphabet Inc.,116.31999969482422,2022-07-29
Alphabet Inc.,114.86000061035156,2022-08-01
Alphabet Inc.,115.12999725341797,2022-08-02
Alphabet Inc.,118.08000183105469,2022-08-03
Alphabet Inc.,118.19000244140625,2022-08-04
Alphabet Inc.,117.47000122070312,2022-08-05
Alphabet Inc.,117.30000305175781,2022-08-08
Alphabet Inc.,116.62999725341797,2022-08-09
Alphabet Inc.,119.69999694824219,2022-08-10
Alphabet Inc.,118.83999633789062,2022-08-11
Alphabet Inc.,121.68000030517578,2022-08-12
Alphabet Inc.,122.08000183105469,2022-08-15
Alphabet Inc.,121.69999694824219,2022-08-16
Alphabet Inc.,119.55000305175781,2022-08-17
Alphabet Inc.,120.16999816894531,2022-08-18
Alphabet Inc.,117.20999908447266,2022-08-19
Alphabet Inc.,114.23999786376953,2022-08-22
Alphabet Inc.,113.86000061035156,2022-08-23
Alphabet Inc.,113.69000244140625,2022-08-24
Alphabet Inc.,116.6500015258789,2022-08-25
Alphabet Inc.,110.33999633789062,2022-08-26
Alphabet Inc.,109.41999816894531,2022-08-29
Alphabet Inc.,108.94000244140625,2022-08-30
Alphabet Inc.,108.22000122070312,2022-08-31
Alphabet Inc.,109.73999786376953,2022-09-01
Alphabet Inc.,107.8499984741211,2022-09-02
Alphabet Inc.,106.80999755859375,2022-09-06
Alphabet Inc.,109.44999694824219,2022-09-07
Alphabet Inc.,108.37999725341797,2022-09-08
Alphabet Inc.,110.6500015258789,2022-09-09
Alphabet Inc.,110.86000061035156,2022-09-12
Alphabet Inc.,104.31999969482422,2022-09-13
Alphabet Inc.,105.0,2022-09-14
Alphabet Inc.,102.91000366210938,2022-09-15
Alphabet Inc.,102.80000305175781,2022-09-16
Alphabet Inc.,103.06999969482422,2022-09-19
Alphabet Inc.,101.13999938964844,2022-09-20
Alphabet Inc.,99.27999877929688,2022-09-21
Alphabet Inc.,100.13999938964844,2022-09-22
Alphabet Inc.,98.73999786376953,2022-09-23
Alphabet Inc.,98.16999816894531,2022-09-26
Alphabet Inc.,97.5,2022-09-27
Alphabet Inc.,100.05000305175781,2022-09-28
Alphabet Inc.,97.41999816894531,2022-09-29
Alphabet Inc.,95.6500015258789,2022-09-30
Alphabet Inc.,98.63999938964844,2022-10-03
Alphabet Inc.,101.63999938964844,2022-10-04
Alphabet Inc.,101.43000030517578,2022-10-05
Alphabet Inc.,101.41999816894531,2022-10-06
Alphabet Inc.,98.68000030517578,2022-10-07
Alphabet Inc.,97.86000061035156,2022-10-10
Alphabet Inc.,97.18000030517578,2022-10-11
Alphabet Inc.,97.55999755859375,2022-10-12
Alphabet Inc.,99.05999755859375,2022-10-13
Alphabet Inc.,96.55999755859375,2022-10-14
Alphabet Inc.,99.97000122070312,2022-10-17
Alphabet Inc.,100.7699966430664,2022-10-18
Alphabet Inc.,99.62999725341797,2022-10-19
Alphabet Inc.,99.97000122070312,2022-10-20
Alphabet Inc.,101.12999725341797,2022-10-21
Alphabet Inc.,102.5199966430664,2022-10-24
Alphabet Inc.,104.4800033569336,2022-10-25
Alphabet Inc.,94.93000030517578,2022-10-26
Alphabet Inc.,92.22000122070312,2022-10-27
Alphabet Inc.,96.29000091552734,2022-10-28
Alphabet Inc.,94.51000213623047,2022-10-31
Alphabet Inc.,90.47000122070312,2022-11-01
Alphabet Inc.,86.97000122070312,2022-11-02
Alphabet Inc.,83.43000030517578,2022-11-03
Alphabet Inc.,86.58000183105469,2022-11-04
Alphabet Inc.,88.48999786376953,2022-11-07
Alphabet Inc.,88.9000015258789,2022-11-08
Alphabet Inc.,87.31999969482422,2022-11-09
Alphabet Inc.,93.94000244140625,2022-11-10
Alphabet Inc.,96.41000366210938,2022-11-11
Alphabet Inc.,95.69999694824219,2022-11-14
Alphabet Inc.,98.44000244140625,2022-11-15
Alphabet Inc.,98.8499984741211,2022-11-16
Alphabet Inc.,98.36000061035156,2022-11-17
Alphabet Inc.,97.43000030517578,2022-11-18
Alphabet Inc.,95.5999984741211,2022-11-21
Alphabet Inc.,97.05000305175781,2022-11-22
Alphabet Inc.,98.45999908447266,2022-11-23
Alphabet Inc.,97.45999908447266,2022-11-25
Alphabet Inc.,96.05000305175781,2022-11-28
Alphabet Inc.,95.19000244140625,2022-11-29
Alphabet Inc.,100.98999786376953,2022-11-30
Alphabet Inc.,100.98999786376953,2022-12-01
Alphabet Inc.,100.44000244140625,2022-12-02
Alphabet Inc.,99.4800033569336,2022-12-05
Alphabet Inc.,96.9800033569336,2022-12-06
Alphabet Inc.,94.94000244140625,2022-12-07
Alphabet Inc.,93.70999908447266,2022-12-08
Alphabet Inc.,92.83000183105469,2022-12-09
Alphabet Inc.,93.30999755859375,2022-12-12
Alphabet Inc.,95.62999725341797,2022-12-13
Alphabet Inc.,95.06999969482422,2022-12-14
Alphabet Inc.,90.86000061035156,2022-12-15
Alphabet Inc.,90.26000213623047,2022-12-16
Alphabet Inc.,88.44000244140625,2022-12-19
Alphabet Inc.,89.0199966430664,2022-12-20
Alphabet Inc.,89.58000183105469,2022-12-21
Alphabet Inc.,87.76000213623047,2022-12-22
Alphabet Inc.,89.2300033569336,2022-12-23
Alphabet Inc.,87.38999938964844,2022-12-27
Alphabet Inc.,86.0199966430664,2022-12-28
Alphabet Inc.,88.44999694824219,2022-12-29
Alphabet Inc.,88.2300033569336,2022-12-30
Alphabet Inc.,89.12000274658203,2023-01-03
Alphabet Inc.,88.08000183105469,2023-01-04
Alphabet Inc.,86.19999694824219,2023-01-05
Alphabet Inc.,87.33999633789062,2023-01-06
Alphabet Inc.,88.0199966430664,2023-01-09
Alphabet Inc.,88.41999816894531,2023-01-10
Alphabet Inc.,91.5199966430664,2023-01-11
Alphabet Inc.,91.12999725341797,2023-01-12
Alphabet Inc.,92.12000274658203,2023-01-13
Alphabet Inc.,91.29000091552734,2023-01-17
Alphabet Inc.,91.12000274658203,2023-01-18
Alphabet Inc.,93.05000305175781,2023-01-19
Alphabet Inc.,98.0199966430664,2023-01-20
Alphabet Inc.,99.79000091552734,2023-01-23
Alphabet Inc.,97.69999694824219,2023-01-24
Alphabet Inc.,95.22000122070312,2023-01-25
Alphabet Inc.,97.5199966430664,2023-01-26
Alphabet Inc.,99.37000274658203,2023-01-27
Alphabet Inc.,96.94000244140625,2023-01-30
Alphabet Inc.,98.83999633789062,2023-01-31
Alphabet Inc.,100.43000030517578,2023-02-01
Alphabet Inc.,107.73999786376953,2023-02-02
Alphabet Inc.,104.77999877929688,2023-02-03
Alphabet Inc.,102.9000015258789,2023-02-06
Alphabet Inc.,107.63999938964844,2023-02-07
Alphabet Inc.,99.37000274658203,2023-02-08
Alphabet Inc.,95.01000213623047,2023-02-09
Alphabet Inc.,94.56999969482422,2023-02-10
Alphabet Inc.,94.61000061035156,2023-02-13
Alphabet Inc.,94.68000030517578,2023-02-14
Alphabet Inc.,96.94000244140625,2023-02-15
Alphabet Inc.,95.51000213623047,2023-02-16
Alphabet Inc.,94.3499984741211,2023-02-17
Alphabet Inc.,91.79000091552734,2023-02-21
Alphabet Inc.,91.6500015258789,2023-02-22
Alphabet Inc.,90.88999938964844,2023-02-23
Alphabet Inc.,89.12999725341797,2023-02-24
Alphabet Inc.,89.87000274658203,2023-02-27
Alphabet Inc.,90.05999755859375,2023-02-28
Alphabet Inc.,90.36000061035156,2023-03-01
Alphabet Inc.,92.0,2023-03-02
Alphabet Inc.,93.6500015258789,2023-03-03
Alphabet Inc.,95.12999725341797,2023-03-06
Alphabet Inc.,93.86000061035156,2023-03-07
Alphabet Inc.,94.25,2023-03-08
Alphabet Inc.,92.31999969482422,2023-03-09
Alphabet Inc.,90.62999725341797,2023-03-10
Alphabet Inc.,91.11000061035156,2023-03-13
Alphabet Inc.,93.97000122070312,2023-03-14
Alphabet Inc.,96.11000061035156,2023-03-15
Alphabet Inc.,100.31999969482422,2023-03-16
Alphabet Inc.,101.62000274658203,2023-03-17
Alphabet Inc.,101.22000122070312,2023-03-20
Alphabet Inc.,104.91999816894531,2023-03-21
Alphabet Inc.,103.37000274658203,2023-03-22
Alphabet Inc.,105.5999984741211,2023-03-23
Alphabet Inc.,105.44000244140625,2023-03-24
Alphabet Inc.,102.45999908447266,2023-03-27
Alphabet Inc.,101.02999877929688,2023-03-28
Alphabet Inc.,101.38999938964844,2023-03-29
Alphabet Inc.,100.88999938964844,2023-03-30
Alphabet Inc.,103.7300033569336,2023-03-31
Alphabet Inc.,104.36000061035156,2023-04-03
Alphabet Inc.,104.72000122070312,2023-04-04
Alphabet Inc.,104.47000122070312,2023-04-05
Alphabet Inc.,108.41999816894531,2023-04-06
Alphabet Inc.,106.44000244140625,2023-04-10
Alphabet Inc.,105.3499984741211,2023-04-11
Alphabet Inc.,104.63999938964844,2023-04-12
Alphabet Inc.,107.43000030517578,2023-04-13
Alphabet Inc.,108.87000274658203,2023-04-14
Alphabet Inc.,105.97000122070312,2023-04-17
Alphabet Inc.,104.5,2023-04-18
Alphabet Inc.,104.18000030517578,2023-04-19
Alphabet Inc.,105.29000091552734,2023-04-20
Alphabet Inc.,105.41000366210938,2023-04-21
Alphabet Inc.,105.97000122070312,2023-04-24
Alphabet Inc.,103.8499984741211,2023-04-25
Alphabet Inc.,103.70999908447266,2023-04-26
Alphabet Inc.,107.58999633789062,2023-04-27
Alphabet Inc.,107.33999633789062,2023-04-28
Alphabet Inc.,107.19999694824219,2023-05-01
Alphabet Inc.,105.31999969482422,2023-05-02
Alphabet Inc.,105.41000366210938,2023-05-03
Alphabet Inc.,104.69000244140625,2023-05-04
Alphabet Inc.,105.56999969482422,2023-05-05
Alphabet Inc.,107.7699966430664,2023-05-08
Alphabet Inc.,107.3499984741211,2023-05-09
Alphabet Inc.,111.75,2023-05-10
Alphabet Inc.,116.56999969482422,2023-05-11
Alphabet Inc.,117.51000213623047,2023-05-12
Alphabet Inc.,116.51000213623047,2023-05-15
Alphabet Inc.,119.51000213623047,2023-05-16
Alphabet Inc.,120.83999633789062,2023-05-17
Alphabet Inc.,122.83000183105469,2023-05-18
Alphabet Inc.,122.76000213623047,2023-05-19
Alphabet Inc.,125.05000305175781,2023-05-22
Alphabet Inc.,122.55999755859375,2023-05-23
Alphabet Inc.,120.9000015258789,2023-05-24
Alphabet Inc.,123.4800033569336,2023-05-25
Alphabet Inc.,124.61000061035156,2023-05-26
Alphabet Inc.,123.66999816894531,2023-05-30
Alphabet Inc.,122.87000274658203,2023-05-31
Alphabet Inc.,123.72000122070312,2023-06-01
Alphabet Inc.,124.66999816894531,2023-06-02
Alphabet Inc.,126.01000213623047,2023-06-05
Alphabet Inc.,127.30999755859375,2023-06-06
Alphabet Inc.,122.5,2023-06-07
Alphabet Inc.,122.13999938964844,2023-06-08
Alphabet Inc.,122.2300033569336,2023-06-09
Alphabet Inc.,123.63999938964844,2023-06-12
Alphabet Inc.,123.83000183105469,2023-06-13
Alphabet Inc.,123.66999816894531,2023-06-14
Alphabet Inc.,125.08999633789062,2023-06-15
Alphabet Inc.,123.52999877929688,2023-06-16
